{
  "clusters": [
    {
      "nodes": [
                    {
          "node": {
            "hostnames": {
              "manage": [
                "gfs1"
              ],
              "storage": [
                "192.168.0.213"
              ]
            },
            "zone": 1
          },
          "devices": [
            "/dev/sdb"
          ]
        },            {
          "node": {
            "hostnames": {
              "manage": [
                "gfs2"
              ],
              "storage": [
                "192.168.0.212"
              ]
            },
            "zone": 1
          },
          "devices": [
            "/dev/sdb"
          ]
         }
      ]
    }
  ]
}

